…
Create a table where you summarise monthly returns for each of the stocks and SPY; min, max, median, mean, SD.

myStocks_returns_monthly %>% 
group_by(symbol) %>% 
summarize(min_mon_ret=min(monthly_returns), max_mon_ret=max(monthly_returns), med_mon_ret=median(monthly_returns), av_mon_ret=mean(monthly_returns), sd_mon_ret=sd(monthly_returns))

## # A tibble: 31 × 6
##    symbol min_mon_ret max_mon_ret med_mon_ret av_mon_ret sd_mon_ret
##    <chr>        <dbl>       <dbl>       <dbl>      <dbl>      <dbl>
##  1 AAPL        -0.577       0.454     0.0352     0.0269      0.115 
##  2 AMGN        -0.170       0.328     0.00856    0.00816     0.0732
##  3 AXP         -0.279       0.875     0.0109     0.0102      0.0921
##  4 BA          -0.458       0.459     0.0165     0.0126      0.0925
##  5 CAT         -0.353       0.350     0.0141     0.0144      0.0899
##  6 CRM         -0.360       0.403     0.0205     0.0262      0.110 
##  7 CSCO        -0.367       0.389     0.0125     0.00609     0.0962
##  8 CVX         -0.224       0.273     0.0108     0.00896     0.0655
##  9 DIS         -0.268       0.234     0.00905    0.0104      0.0737
## 10 DOW         -0.276       0.255     0.0386     0.0160      0.109 
## # … with 21 more rows
…
